{
  "type": "module",
  "name": "reserva",
  "version": "4.0.0",
  "revision": null,
  "path": "application\/modules\/Reserva",
  "repository": null,
  "date": "Mon, 29 Aug 2016 13:47:32 +0000",
  "title": "Reserva",
  "description": "",
  "thumb": null,
  "developer": null,
  "authors": [
    "Vectorial Studios"
  ],
  "changeLog": null,
  "meta": {
    "date": "Mon, 29 Aug 2016 13:47:32 +0000",
    "title": "Reserva",
    "description": "",
    "developer": null,
    "authors": [
      "Vectorial Studios"
    ],
    "changeLog": null
  },
  "actions": [
    "install",
    "upgrade",
    "refresh",
    "enable",
    "disable"
  ],
  "callback": {
    "path": null,
    "class": "Engine_Package_Installer_Module",
    "priority": 100
  },
  "dependencies": null,
  "tests": [
    
  ],
  "permissions": [
    
  ],
  "structure": {
    "application\/modules\/Reserva": {
      "type": "directory",
      "path": "application\/modules\/Reserva",
      "structure": [
        {
          "path": "Bootstrap.php",
          "dir": false,
          "file": true,
          "perms": "0644",
          "size": 86,
          "sha1": "29a0ae45fb944449cace79f815fdb0661e4188a3"
        },
        {
          "path": "controllers",
          "dir": true,
          "file": false,
          "perms": "0755",
          "size": 102,
          "sha1": null
        },
        {
          "path": "controllers\/IndexController.php",
          "dir": false,
          "file": true,
          "perms": "0644",
          "size": 168,
          "sha1": "661c04d17a0d2724b62726b4018f071fc9bcdd37"
        },
        {
          "path": "externals",
          "dir": true,
          "file": false,
          "perms": "0755",
          "size": 204,
          "sha1": null
        },
        {
          "path": "externals\/.htaccess",
          "dir": false,
          "file": true,
          "perms": "0644",
          "size": 147,
          "sha1": "9f1638a8edbe1c5d28789e017fb35b2f2465f01e"
        },
        {
          "path": "externals\/images",
          "dir": true,
          "file": false,
          "perms": "0755",
          "size": 102,
          "sha1": null
        },
        {
          "path": "externals\/images\/.htempty",
          "dir": false,
          "file": true,
          "perms": "0644",
          "size": 0,
          "sha1": "da39a3ee5e6b4b0d3255bfef95601890afd80709"
        },
        {
          "path": "externals\/scripts",
          "dir": true,
          "file": false,
          "perms": "0755",
          "size": 102,
          "sha1": null
        },
        {
          "path": "externals\/scripts\/.htempty",
          "dir": false,
          "file": true,
          "perms": "0644",
          "size": 0,
          "sha1": "da39a3ee5e6b4b0d3255bfef95601890afd80709"
        },
        {
          "path": "externals\/styles",
          "dir": true,
          "file": false,
          "perms": "0755",
          "size": 102,
          "sha1": null
        },
        {
          "path": "externals\/styles\/main.css",
          "dir": false,
          "file": true,
          "perms": "0644",
          "size": 0,
          "sha1": "da39a3ee5e6b4b0d3255bfef95601890afd80709"
        },
        {
          "path": "Form",
          "dir": true,
          "file": false,
          "perms": "0755",
          "size": 102,
          "sha1": null
        },
        {
          "path": "Form\/.htempty",
          "dir": false,
          "file": true,
          "perms": "0644",
          "size": 0,
          "sha1": "da39a3ee5e6b4b0d3255bfef95601890afd80709"
        },
        {
          "path": "Model",
          "dir": true,
          "file": false,
          "perms": "0755",
          "size": 102,
          "sha1": null
        },
        {
          "path": "Model\/DbTable",
          "dir": true,
          "file": false,
          "perms": "0755",
          "size": 102,
          "sha1": null
        },
        {
          "path": "Model\/DbTable\/.htempty",
          "dir": false,
          "file": true,
          "perms": "0644",
          "size": 0,
          "sha1": "da39a3ee5e6b4b0d3255bfef95601890afd80709"
        },
        {
          "path": "settings",
          "dir": true,
          "file": false,
          "perms": "0755",
          "size": 136,
          "sha1": null
        },
        {
          "path": "settings\/manifest.php",
          "dir": false,
          "file": true,
          "perms": "0644",
          "size": 670,
          "sha1": "7462a36899610386e64d4a16261e2a87f75eeb5a"
        },
        {
          "path": "settings\/my-install.sql",
          "dir": false,
          "file": true,
          "perms": "0644",
          "size": 162,
          "sha1": "f4be67dc150c8c36aef5dd0c24ca3e9e66b89b73"
        },
        {
          "path": "views",
          "dir": true,
          "file": false,
          "perms": "0755",
          "size": 102,
          "sha1": null
        },
        {
          "path": "views\/scripts",
          "dir": true,
          "file": false,
          "perms": "0755",
          "size": 102,
          "sha1": null
        },
        {
          "path": "views\/scripts\/index",
          "dir": true,
          "file": false,
          "perms": "0755",
          "size": 102,
          "sha1": null
        },
        {
          "path": "views\/scripts\/index\/index.tpl",
          "dir": false,
          "file": true,
          "perms": "0644",
          "size": 80,
          "sha1": "be23a37c24d952e029c19dd26829c76a61279d5f"
        }
      ]
    },
    "application\/languages\/en\/reserva.csv": {
      "type": "file",
      "path": "application\/languages\/en\/reserva.csv",
      "structure": {
        "path": "reserva.csv",
        "dir": false,
        "file": true,
        "perms": "0644",
        "size": 0,
        "sha1": "da39a3ee5e6b4b0d3255bfef95601890afd80709"
      }
    }
  }
}